…
    cor_value |>
      arrange(desc(cor)) |>
      print(n = 3)
    
    print(plot)
}
```

Running this function gives the output below.

``` r
scatter_facet(PHGDH, PSAT1)
```

    ## # A tibble: 36 × 2
    ##   Type     cor
    ##   <chr>  <dbl>
    ## 1 KICH   0.779
    ## 2 GBMLGG 0.680
    ## 3 READ   0.663
    ## # ℹ 33 more rows
…
